User ID : dev           IP Address : 203.145.168.91           Date Of Login : 2016-12-29            Time of Login : 06:01:58pm
User ID : dev           IP Address : 203.145.168.91           Date Of Login : 2016-12-29            Time of Login : 06:04:05pm
User ID : dev           IP Address : 203.145.168.91           Date Of Login : 2016-12-29            Time of Login : 06:09:33pm
User ID : admin           IP Address : 171.61.165.159           Date Of Login : 2016-12-30            Time of Login : 10:55:43am
User ID : admin           IP Address : 171.61.165.159           Date Of Login : 2016-12-30            Time of Login : 11:59:22am
User ID : admin           IP Address : 171.61.165.159           Date Of Login : 2016-12-30            Time of Login : 12:02:23pm
User ID : admin           IP Address : 171.61.165.159           Date Of Login : 2016-12-30            Time of Login : 12:04:16pm
User ID : admin           IP Address : 171.61.165.159           Date Of Login : 2016-12-30            Time of Login : 12:06:58pm
User ID : admin           IP Address : 171.61.165.159           Date Of Login : 2016-12-30            Time of Login : 12:08:31pm
User ID : admin           IP Address : 171.61.165.159           Date Of Login : 2016-12-30            Time of Login : 12:10:03pm
User ID : admin           IP Address : 171.61.165.159           Date Of Login : 2016-12-30            Time of Login : 12:11:27pm
User ID : admin           IP Address : 171.61.165.159           Date Of Login : 2016-12-30            Time of Login : 12:13:32pm
User ID : admin           IP Address : 171.61.165.159           Date Of Login : 2016-12-30            Time of Login : 12:16:25pm
User ID : admin           IP Address : 171.61.165.159           Date Of Login : 2016-12-30            Time of Login : 12:19:26pm
User ID : admin           IP Address : 171.61.165.159           Date Of Login : 2016-12-30            Time of Login : 12:22:05pm
User ID : admin           IP Address : 171.61.165.159           Date Of Login : 2016-12-30            Time of Login : 12:24:54pm
User ID : admin           IP Address : 171.61.165.159           Date Of Login : 2016-12-30            Time of Login : 12:26:51pm
User ID : admin           IP Address : 171.61.165.159           Date Of Login : 2016-12-30            Time of Login : 12:33:26pm
User ID : admin           IP Address : 171.61.165.159           Date Of Login : 2016-12-30            Time of Login : 12:34:54pm
User ID : admin           IP Address : 171.61.165.159           Date Of Login : 2016-12-30            Time of Login : 12:38:00pm
User ID : admin           IP Address : 171.61.165.159           Date Of Login : 2016-12-30            Time of Login : 12:42:09pm
User ID : admin           IP Address : 171.61.165.159           Date Of Login : 2016-12-30            Time of Login : 03:33:00pm
User ID : admin           IP Address : 171.61.165.159           Date Of Login : 2016-12-30            Time of Login : 04:10:37pm
User ID : admin           IP Address : 203.145.168.91           Date Of Login : 2016-12-31            Time of Login : 10:33:58am
User ID : admin           IP Address : 110.22.111.108           Date Of Login : 2017-01-01            Time of Login : 04:44:20pm
User ID : admin           IP Address : 110.22.111.108           Date Of Login : 2017-01-02            Time of Login : 10:46:48am
User ID : admin           IP Address : 203.145.168.91           Date Of Login : 2017-01-02            Time of Login : 10:54:01am
User ID : admin           IP Address : 171.79.66.170           Date Of Login : 2017-01-02            Time of Login : 12:02:07pm
User ID : admin           IP Address : 203.145.168.91           Date Of Login : 2017-01-03            Time of Login : 10:37:53am
User ID : admin           IP Address : 171.79.66.170           Date Of Login : 2017-01-03            Time of Login : 10:41:20am
User ID : admin           IP Address : 203.145.168.91           Date Of Login : 2017-01-03            Time of Login : 11:53:42am
User ID : admin           IP Address : 203.145.168.91           Date Of Login : 2017-01-03            Time of Login : 01:45:24pm
User ID : admin           IP Address : 203.145.168.91           Date Of Login : 2017-01-03            Time of Login : 04:27:06pm
User ID : admin           IP Address : 110.22.111.108           Date Of Login : 2017-01-04            Time of Login : 02:02:55am
User ID : admin           IP Address : 203.145.168.91           Date Of Login : 2017-01-04            Time of Login : 11:24:36am
User ID : admin           IP Address : 203.145.168.91           Date Of Login : 2017-01-04            Time of Login : 12:36:03pm
User ID : admin           IP Address : 110.22.111.108           Date Of Login : 2017-01-05            Time of Login : 11:51:44am
User ID : admin           IP Address : 171.79.66.170           Date Of Login : 2017-01-05            Time of Login : 02:12:23pm
User ID : admin           IP Address : 203.145.168.91           Date Of Login : 2017-01-05            Time of Login : 03:10:07pm
User ID : admin           IP Address : 110.22.111.108           Date Of Login : 2017-01-06            Time of Login : 01:50:10am
User ID : admin           IP Address : 171.79.66.170           Date Of Login : 2017-01-06            Time of Login : 10:46:02am
User ID : admin           IP Address : 171.79.66.170           Date Of Login : 2017-01-06            Time of Login : 01:34:18pm
User ID : admin           IP Address : 203.145.168.91           Date Of Login : 2017-01-06            Time of Login : 03:09:46pm
User ID : hari_perch           IP Address : 171.79.66.170           Date Of Login : 2017-01-06            Time of Login : 03:30:25pm
User ID : dev           IP Address : 171.79.66.170           Date Of Login : 2017-01-06            Time of Login : 03:31:24pm
User ID : admin           IP Address : 171.79.66.170           Date Of Login : 2017-01-06            Time of Login : 03:33:49pm
User ID : hari           IP Address : 171.79.66.170           Date Of Login : 2017-01-06            Time of Login : 03:37:24pm
User ID : hari           IP Address : 171.79.66.170           Date Of Login : 2017-01-06            Time of Login : 03:46:02pm
User ID : admin           IP Address : 171.79.66.170           Date Of Login : 2017-01-06            Time of Login : 03:47:13pm
User ID : admin           IP Address : 203.145.168.91           Date Of Login : 2017-01-07            Time of Login : 12:02:29pm
User ID : admin           IP Address : 171.61.154.233           Date Of Login : 2017-01-07            Time of Login : 12:07:51pm
User ID : admin           IP Address : 171.61.154.233           Date Of Login : 2017-01-07            Time of Login : 12:49:35pm
User ID : admin           IP Address : 171.61.154.233           Date Of Login : 2017-01-07            Time of Login : 12:53:02pm
User ID : admin           IP Address : 171.61.154.233           Date Of Login : 2017-01-07            Time of Login : 12:57:16pm
User ID : ADMIN           IP Address : 171.61.154.233           Date Of Login : 2017-01-07            Time of Login : 12:59:54pm
User ID : admin           IP Address : 171.61.154.233           Date Of Login : 2017-01-07            Time of Login : 01:11:30pm
User ID : admin           IP Address : 110.22.111.108           Date Of Login : 2017-01-07            Time of Login : 01:46:55pm
User ID : admin           IP Address : 203.145.168.91           Date Of Login : 2017-01-11            Time of Login : 11:58:07am
User ID : admin           IP Address : 203.145.168.91           Date Of Login : 2017-01-11            Time of Login : 12:45:37pm
User ID : admin           IP Address : 203.145.168.91           Date Of Login : 2017-01-11            Time of Login : 03:52:47pm
User ID : admin           IP Address : 110.22.111.108           Date Of Login : 2017-01-12            Time of Login : 03:00:28am
User ID : admin           IP Address : 203.145.168.91           Date Of Login : 2017-01-12            Time of Login : 10:50:00am
User ID : admin           IP Address : 223.179.156.130           Date Of Login : 2017-01-13            Time of Login : 10:43:38am
User ID : admin           IP Address : 110.22.111.108           Date Of Login : 2017-01-13            Time of Login : 12:47:10pm
User ID : dev           IP Address : 171.61.169.9           Date Of Login : 2017-02-01            Time of Login : 12:47:26pm
User ID : dev           IP Address : 171.61.169.9           Date Of Login : 2017-02-01            Time of Login : 12:50:47pm
User ID : dev           IP Address : 171.61.169.9           Date Of Login : 2017-02-01            Time of Login : 12:53:19pm
User ID : admin           IP Address : 171.61.169.9           Date Of Login : 2017-02-01            Time of Login : 12:54:13pm
User ID : admin           IP Address : 171.61.169.9           Date Of Login : 2017-02-01            Time of Login : 01:04:41pm
User ID : dev           IP Address : 171.61.169.9           Date Of Login : 2017-02-01            Time of Login : 01:11:35pm
User ID : admin           IP Address : 171.61.169.9           Date Of Login : 2017-02-01            Time of Login : 01:23:16pm
User ID : admin           IP Address : 171.61.169.9           Date Of Login : 2017-02-01            Time of Login : 03:51:22pm
User ID : admin           IP Address : 171.61.169.9           Date Of Login : 2017-02-02            Time of Login : 10:46:57am
User ID : admin           IP Address : 171.61.169.9           Date Of Login : 2017-02-02            Time of Login : 01:18:03pm
User ID : admin           IP Address : 110.22.111.108           Date Of Login : 2017-02-02            Time of Login : 01:50:23pm
User ID : admin           IP Address : 171.61.169.9           Date Of Login : 2017-02-03            Time of Login : 10:38:13am
User ID : admin           IP Address : 171.61.169.9           Date Of Login : 2017-02-03            Time of Login : 10:42:23am
User ID : admin           IP Address : 171.61.169.9           Date Of Login : 2017-02-03            Time of Login : 12:30:26pm
User ID : admin           IP Address : 117.96.240.178           Date Of Login : 2017-02-04            Time of Login : 12:58:56pm
User ID : admin           IP Address : 110.22.111.108           Date Of Login : 2017-02-06            Time of Login : 09:58:45am
User ID : admin           IP Address : 117.96.240.178           Date Of Login : 2017-02-06            Time of Login : 10:44:55am
User ID : admin           IP Address : 117.96.240.178           Date Of Login : 2017-02-06            Time of Login : 11:10:33am
User ID : dev           IP Address : 117.96.240.178           Date Of Login : 2017-02-06            Time of Login : 11:15:12am
User ID : admin           IP Address : 117.96.240.178           Date Of Login : 2017-02-06            Time of Login : 11:15:27am
User ID : admin           IP Address : 117.96.240.178           Date Of Login : 2017-02-06            Time of Login : 12:31:13pm
User ID : dev           IP Address : 117.96.240.178           Date Of Login : 2017-02-06            Time of Login : 01:36:14pm
User ID : admin           IP Address : 117.96.240.178           Date Of Login : 2017-02-06            Time of Login : 01:47:47pm
User ID : dev           IP Address : 117.96.240.178           Date Of Login : 2017-02-06            Time of Login : 01:51:02pm
User ID : admin           IP Address : 110.22.111.108           Date Of Login : 2017-02-07            Time of Login : 11:04:00am
User ID : admin           IP Address : 223.179.128.57           Date Of Login : 2017-02-07            Time of Login : 11:12:35am
User ID : admin           IP Address : 223.179.128.57           Date Of Login : 2017-02-07            Time of Login : 12:01:01pm
User ID : admin           IP Address : 171.61.184.122           Date Of Login : 2017-02-08            Time of Login : 11:09:37am
User ID : admin           IP Address : 171.61.184.122           Date Of Login : 2017-02-08            Time of Login : 11:46:38am
User ID : admin           IP Address : 110.22.111.108           Date Of Login : 2017-02-08            Time of Login : 02:03:30pm
User ID : admin           IP Address : 182.77.125.153           Date Of Login : 2017-02-09            Time of Login : 03:54:06pm
User ID : admin           IP Address : 223.190.27.79           Date Of Login : 2017-02-10            Time of Login : 12:44:38pm
User ID : admin           IP Address : 110.22.111.108           Date Of Login : 2017-02-13            Time of Login : 05:33:28pm
User ID : admin           IP Address : 223.190.27.79           Date Of Login : 2017-02-14            Time of Login : 04:36:42pm
User ID : admin           IP Address : 110.22.111.108           Date Of Login : 2017-02-15            Time of Login : 08:47:44am
User ID : admin           IP Address : 223.190.27.79           Date Of Login : 2017-02-15            Time of Login : 11:40:25am
User ID : admin           IP Address : 110.22.111.108           Date Of Login : 2017-02-15            Time of Login : 12:44:02pm
User ID : admin           IP Address : 223.176.16.150           Date Of Login : 2017-02-15            Time of Login : 05:01:46pm
User ID : admin           IP Address : 223.190.27.79           Date Of Login : 2017-02-16            Time of Login : 12:38:55pm
User ID : admin           IP Address : 117.197.72.2           Date Of Login : 2017-02-16            Time of Login : 04:16:34pm
User ID : admin           IP Address : 223.190.27.79           Date Of Login : 2017-02-16            Time of Login : 05:07:56pm
User ID : admin           IP Address : 203.145.168.91           Date Of Login : 2017-02-16            Time of Login : 05:25:02pm
User ID : admin           IP Address : 110.22.111.108           Date Of Login : 2017-02-17            Time of Login : 06:26:09am
User ID : admin           IP Address : 223.190.27.79           Date Of Login : 2017-02-17            Time of Login : 10:40:43am
User ID : admin           IP Address : 171.61.168.39           Date Of Login : 2017-02-20            Time of Login : 12:03:40pm
User ID : admin           IP Address : 47.29.45.86           Date Of Login : 2017-02-21            Time of Login : 02:20:00pm
User ID : admin           IP Address : 203.123.37.86           Date Of Login : 2017-02-22            Time of Login : 06:43:05am
User ID : admin           IP Address : 171.61.168.39           Date Of Login : 2017-02-22            Time of Login : 11:13:26am
User ID : admin           IP Address : 171.61.168.39           Date Of Login : 2017-02-22            Time of Login : 05:21:51pm
User ID : admin           IP Address : 182.77.122.50           Date Of Login : 2017-02-23            Time of Login : 11:19:55am
User ID : admin           IP Address : 203.92.52.234           Date Of Login : 2017-02-23            Time of Login : 01:23:28pm
User ID : admin           IP Address : 182.77.122.50           Date Of Login : 2017-02-23            Time of Login : 01:25:36pm
User ID : admin           IP Address : 182.66.150.197           Date Of Login : 2017-02-23            Time of Login : 01:43:39pm
User ID : admin           IP Address : 182.77.122.50           Date Of Login : 2017-02-23            Time of Login : 01:56:46pm
User ID : admin           IP Address : 182.77.122.50           Date Of Login : 2017-02-23            Time of Login : 02:02:07pm
User ID : admin           IP Address : 203.92.52.234           Date Of Login : 2017-02-23            Time of Login : 02:18:49pm
User ID : admin           IP Address : 182.77.122.50           Date Of Login : 2017-02-24            Time of Login : 11:24:33am
User ID : admin           IP Address : 182.77.122.50           Date Of Login : 2017-02-24            Time of Login : 11:25:04am
User ID : admin           IP Address : 1.23.244.120           Date Of Login : 2017-02-24            Time of Login : 04:18:42pm
User ID : admin           IP Address : 182.77.122.50           Date Of Login : 2017-02-27            Time of Login : 11:03:46am
User ID : admin           IP Address : 182.77.122.50           Date Of Login : 2017-02-28            Time of Login : 12:28:01pm
User ID : admin           IP Address : 182.77.122.50           Date Of Login : 2017-03-01            Time of Login : 10:20:19am
User ID : admin           IP Address : 182.77.122.50           Date Of Login : 2017-03-01            Time of Login : 10:58:36am
User ID : admin           IP Address : 117.96.224.81           Date Of Login : 2017-03-09            Time of Login : 11:52:20am
User ID : admin           IP Address : 117.96.224.81           Date Of Login : 2017-03-09            Time of Login : 11:53:58am
User ID : admin           IP Address : 117.96.224.81           Date Of Login : 2017-03-09            Time of Login : 11:58:58am
User ID : admin           IP Address : 117.96.224.81           Date Of Login : 2017-03-09            Time of Login : 12:29:28pm
User ID : admin           IP Address : 117.96.224.81           Date Of Login : 2017-03-09            Time of Login : 12:31:24pm
User ID : admin           IP Address : 117.96.224.81           Date Of Login : 2017-03-09            Time of Login : 12:36:04pm
User ID : admin           IP Address : 117.96.224.81           Date Of Login : 2017-03-09            Time of Login : 12:38:59pm
User ID : admin           IP Address : 117.96.224.81           Date Of Login : 2017-03-09            Time of Login : 12:39:17pm
User ID : admin           IP Address : 117.96.224.81           Date Of Login : 2017-03-09            Time of Login : 12:57:39pm
User ID : admin           IP Address : 117.96.224.81           Date Of Login : 2017-03-09            Time of Login : 01:18:52pm
User ID : admin           IP Address : 110.22.111.108           Date Of Login : 2017-03-10            Time of Login : 02:10:35am
User ID : admin           IP Address : 117.96.224.81           Date Of Login : 2017-03-10            Time of Login : 11:57:46am
User ID : admin           IP Address : 117.96.224.81           Date Of Login : 2017-03-11            Time of Login : 11:50:53am
User ID : admin           IP Address : 117.96.224.81           Date Of Login : 2017-03-14            Time of Login : 10:49:31am
User ID : admin           IP Address : 117.96.224.81           Date Of Login : 2017-03-14            Time of Login : 05:38:10pm
User ID : admin           IP Address : 117.96.224.81           Date Of Login : 2017-03-15            Time of Login : 12:02:14pm
User ID : admin           IP Address : 117.96.224.81           Date Of Login : 2017-03-16            Time of Login : 10:46:45am
User ID : admin           IP Address : 117.96.224.81           Date Of Login : 2017-03-17            Time of Login : 10:39:10am
User ID : admin           IP Address : 117.96.224.81           Date Of Login : 2017-03-17            Time of Login : 02:49:57pm
User ID : admin           IP Address : 110.22.111.108           Date Of Login : 2017-03-19            Time of Login : 03:33:52pm
User ID : admin           IP Address : 110.22.111.108           Date Of Login : 2017-03-19            Time of Login : 03:36:34pm
User ID : admin           IP Address : 110.22.111.108           Date Of Login : 2017-03-21            Time of Login : 01:15:25am
User ID : admin           IP Address : 117.96.224.81           Date Of Login : 2017-03-21            Time of Login : 10:47:06am
User ID : admin           IP Address : 117.96.224.81           Date Of Login : 2017-03-23            Time of Login : 06:46:09pm
User ID : admin           IP Address : 117.96.224.81           Date Of Login : 2017-03-24            Time of Login : 03:24:51pm
User ID : admin           IP Address : 117.96.224.81           Date Of Login : 2017-03-25            Time of Login : 11:02:07am
User ID : admin           IP Address : 117.96.224.81           Date Of Login : 2017-03-25            Time of Login : 02:40:02pm
User ID : admin           IP Address : 203.145.168.91           Date Of Login : 2017-03-27            Time of Login : 02:54:54pm
User ID : admin           IP Address : 203.145.168.91           Date Of Login : 2017-03-27            Time of Login : 03:59:15pm
User ID : admin           IP Address : 203.145.168.91           Date Of Login : 2017-03-27            Time of Login : 04:00:35pm
User ID : admin           IP Address : 203.145.168.91           Date Of Login : 2017-03-27            Time of Login : 04:02:22pm
User ID : admin           IP Address : 117.96.224.81           Date Of Login : 2017-03-27            Time of Login : 04:51:44pm
User ID : admin           IP Address : 203.145.168.91           Date Of Login : 2017-03-28            Time of Login : 11:16:02am
User ID : admin           IP Address : 203.145.168.91           Date Of Login : 2017-03-28            Time of Login : 05:25:48pm
